{
  "entries": {
    "tap": {
      "homebrew/bundle": {
        "revision": "73715a1d4ccf465204215e958de91daf79e25a8a"
      },
      "homebrew/cask-fonts": {
        "revision": "5dbe07c7e101165698b5f60ffb0b72d438410e7e"
      },
      "homebrew/cask-versions": {
        "revision": "dde70d27385837110bd9fd02cbbc515452330d6a"
      }
    },
    "brew": {
      "docker": {
        "version": "26.1.0",
        "bottle": {
          "rebuild": 0,
          "root_url": "https://ghcr.io/v2/homebrew/core",
          "files": {
            "arm64_sonoma": {
              "cellar": ":any_skip_relocation",
              "url": "https://ghcr.io/v2/homebrew/core/docker/blobs/sha256:477d7a0ce1820393454ddf43b5d23aff3d002f056945b4db181cf6de29b95bfd",
              "sha256": "477d7a0ce1820393454ddf43b5d23aff3d002f056945b4db181cf6de29b95bfd"
            },
            "arm64_ventura": {
              "cellar": ":any_skip_relocation",
              "url": "https://ghcr.io/v2/homebrew/core/docker/blobs/sha256:29623354566234e13f228b7ccc83dfdf68bc5d552f240535198cd1484b2510eb",
              "sha256": "29623354566234e13f228b7ccc83dfdf68bc5d552f240535198cd1484b2510eb"
            },
            "arm64_monterey": {
              "cellar": ":any_skip_relocation",
              "url": "https://ghcr.io/v2/homebrew/core/docker/blobs/sha256:3dab8b2b29dde675504141ef1e7258404a15e9c7e2e3f5c3811b7bfcf8289400",
              "sha256": "3dab8b2b29dde675504141ef1e7258404a15e9c7e2e3f5c3811b7bfcf8289400"
            },
            "sonoma": {
              "cellar": ":any_skip_relocation",
              "url": "https://ghcr.io/v2/homebrew/core/docker/blobs/sha256:5e0389a097ad7bcac3b059eef9c51f00d1a72ba939cb9b2e32b61bd669d76f03",
              "sha256": "5e0389a097ad7bcac3b059eef9c51f00d1a72ba939cb9b2e32b61bd669d76f03"
            },
            "ventura": {
              "cellar": ":any_skip_relocation",
              "url": "https://ghcr.io/v2/homebrew/core/docker/blobs/sha256:f0952f282e63b762d2531192a790d4740aa2c9d8760a2e96e95427dc46f4d613",
              "sha256": "f0952f282e63b762d2531192a790d4740aa2c9d8760a2e96e95427dc46f4d613"
            },
            "monterey": {
              "cellar": ":any_skip_relocation",
              "url": "https://ghcr.io/v2/homebrew/core/docker/blobs/sha256:ecf2fc53e00dc5d481f81825db93228b7d529a2e7e4e32cf7cfdafcb93775bbc",
              "sha256": "ecf2fc53e00dc5d481f81825db93228b7d529a2e7e4e32cf7cfdafcb93775bbc"
            },
            "x86_64_linux": {
              "cellar": ":any_skip_relocation",
              "url": "https://ghcr.io/v2/homebrew/core/docker/blobs/sha256:1fb34ef6a049d1526d84ad6711a3b4d9e34dc761d98ead6910ea0299010266ab",
              "sha256": "1fb34ef6a049d1526d84ad6711a3b4d9e34dc761d98ead6910ea0299010266ab"
            }
          }
        }
      },
      "openssl@3": {
        "version": "3.3.0",
        "bottle": {
          "rebuild": 1,
          "root_url": "https://ghcr.io/v2/homebrew/core",
          "files": {
            "arm64_sonoma": {
              "cellar": "/opt/homebrew/Cellar",
              "url": "https://ghcr.io/v2/homebrew/core/openssl/3/blobs/sha256:ec6f9daf8e32d96f4a2f4cd56d18533ee47bb8d9e7cb3d832ac64115d8a1a4ca",
              "sha256": "ec6f9daf8e32d96f4a2f4cd56d18533ee47bb8d9e7cb3d832ac64115d8a1a4ca"
            },
            "arm64_ventura": {
              "cellar": "/opt/homebrew/Cellar",
              "url": "https://ghcr.io/v2/homebrew/core/openssl/3/blobs/sha256:58665ec9e2873dba2799be5992eab3973f230acc352d09bd4a69131ac3ccd2d4",
              "sha256": "58665ec9e2873dba2799be5992eab3973f230acc352d09bd4a69131ac3ccd2d4"
            },
            "arm64_monterey": {
              "cellar": "/opt/homebrew/Cellar",
              "url": "https://ghcr.io/v2/homebrew/core/openssl/3/blobs/sha256:1afa5e6964d9418fb8bb2d489e5069becd55f963c1ea7a2a30ca838b17d9bf66",
              "sha256": "1afa5e6964d9418fb8bb2d489e5069becd55f963c1ea7a2a30ca838b17d9bf66"
            },
            "sonoma": {
              "cellar": "/usr/local/Cellar",
              "url": "https://ghcr.io/v2/homebrew/core/openssl/3/blobs/sha256:f37328addd300e16046ee900f26d3ed026a6c810ea88269e114a4e0f06ed41b6",
              "sha256": "f37328addd300e16046ee900f26d3ed026a6c810ea88269e114a4e0f06ed41b6"
            },
            "ventura": {
              "cellar": "/usr/local/Cellar",
              "url": "https://ghcr.io/v2/homebrew/core/openssl/3/blobs/sha256:28be258776e175a8c29a19be5312b885574a98324d7b03c7ec12f2d7eadcbce1",
              "sha256": "28be258776e175a8c29a19be5312b885574a98324d7b03c7ec12f2d7eadcbce1"
            },
            "monterey": {
              "cellar": "/usr/local/Cellar",
              "url": "https://ghcr.io/v2/homebrew/core/openssl/3/blobs/sha256:f5b70155f3fdbf574843741924758ca05fc996263e348660ac817e75052dacf9",
              "sha256": "f5b70155f3fdbf574843741924758ca05fc996263e348660ac817e75052dacf9"
            },
            "x86_64_linux": {
              "cellar": "/home/linuxbrew/.linuxbrew/Cellar",
              "url": "https://ghcr.io/v2/homebrew/core/openssl/3/blobs/sha256:005380f94547e270e9c8617fe0211c30daad8a5712d038f7edee3fb5bc0f1226",
              "sha256": "005380f94547e270e9c8617fe0211c30daad8a5712d038f7edee3fb5bc0f1226"
            }
          }
        }
      },
      "eza": {
        "version": "0.18.13",
        "bottle": {
          "rebuild": 0,
          "root_url": "https://ghcr.io/v2/homebrew/core",
          "files": {
            "arm64_sonoma": {
              "cellar": ":any",
              "url": "https://ghcr.io/v2/homebrew/core/eza/blobs/sha256:b858b99fcdcd9df4b39e2e5ce419e149325a981fc27556d29195d449f3b84543",
              "sha256": "b858b99fcdcd9df4b39e2e5ce419e149325a981fc27556d29195d449f3b84543"
            },
            "arm64_ventura": {
              "cellar": ":any",
              "url": "https://ghcr.io/v2/homebrew/core/eza/blobs/sha256:d22223b7bf2d9a5dbaec3c3a773e7448667c2aa85f3749794ff179d2df3fb0e4",
              "sha256": "d22223b7bf2d9a5dbaec3c3a773e7448667c2aa85f3749794ff179d2df3fb0e4"
            },
            "arm64_monterey": {
              "cellar": ":any",
              "url": "https://ghcr.io/v2/homebrew/core/eza/blobs/sha256:12a95474e90f025ff9e0b16a8dba1592b3aae34d0f27aa741874bd5de8787afe",
              "sha256": "12a95474e90f025ff9e0b16a8dba1592b3aae34d0f27aa741874bd5de8787afe"
            },
            "sonoma": {
              "cellar": ":any",
              "url": "https://ghcr.io/v2/homebrew/core/eza/blobs/sha256:6faf904c890dfd3c9a1e1879309b328a0bee54f9f8ed3aa2cedb375d8609aaf8",
              "sha256": "6faf904c890dfd3c9a1e1879309b328a0bee54f9f8ed3aa2cedb375d8609aaf8"
            },
            "ventura": {
              "cellar": ":any",
              "url": "https://ghcr.io/v2/homebrew/core/eza/blobs/sha256:7a65dd9953f5172ef6b6a938f4da13a848a26a96c5dda166d5003c6e424971c4",
              "sha256": "7a65dd9953f5172ef6b6a938f4da13a848a26a96c5dda166d5003c6e424971c4"
            },
            "monterey": {
              "cellar": ":any",
              "url": "https://ghcr.io/v2/homebrew/core/eza/blobs/sha256:d2541131fdef6333357a65d55f460b01e5f11095ced7b9c563b105df72816513",
              "sha256": "d2541131fdef6333357a65d55f460b01e5f11095ced7b9c563b105df72816513"
            },
            "x86_64_linux": {
              "cellar": ":any_skip_relocation",
              "url": "https://ghcr.io/v2/homebrew/core/eza/blobs/sha256:6a577161eda4c7a1d870b21da914a29d7029991628428265d0cf1fbb556213b3",
              "sha256": "6a577161eda4c7a1d870b21da914a29d7029991628428265d0cf1fbb556213b3"
            }
          }
        }
      },
      "fd": {
        "version": "9.0.0",
        "bottle": {
          "rebuild": 0,
          "root_url": "https://ghcr.io/v2/homebrew/core",
          "files": {
            "arm64_sonoma": {
              "cellar": ":any_skip_relocation",
              "url": "https://ghcr.io/v2/homebrew/core/fd/blobs/sha256:fbd946a04fb7affea1dcbed915c312812b41bb2baa53d5cd21621e86bd85fdbe",
              "sha256": "fbd946a04fb7affea1dcbed915c312812b41bb2baa53d5cd21621e86bd85fdbe"
            },
            "arm64_ventura": {
              "cellar": ":any_skip_relocation",
              "url": "https://ghcr.io/v2/homebrew/core/fd/blobs/sha256:9571530e58a9248c63ef228c24b2871366a93bc40819f56f3851e11b70cc122d",
              "sha256": "9571530e58a9248c63ef228c24b2871366a93bc40819f56f3851e11b70cc122d"
            },
            "arm64_monterey": {
              "cellar": ":any_skip_relocation",
              "url": "https://ghcr.io/v2/homebrew/core/fd/blobs/sha256:7b6fc1b116843a790e8cc6e2fc5eefb0ec1e8be6e468aeea9843bf089cf8abbe",
              "sha256": "7b6fc1b116843a790e8cc6e2fc5eefb0ec1e8be6e468aeea9843bf089cf8abbe"
            },
            "sonoma": {
              "cellar": ":any_skip_relocation",
              "url": "https://ghcr.io/v2/homebrew/core/fd/blobs/sha256:53da052d53334f6f60dad0add170b261044e50de2af61559ea32b5bc3487f816",
              "sha256": "53da052d53334f6f60dad0add170b261044e50de2af61559ea32b5bc3487f816"
            },
            "ventura": {
              "cellar": ":any_skip_relocation",
              "url": "https://ghcr.io/v2/homebrew/core/fd/blobs/sha256:11bd142cf3d824bb24cb1867ed9a58960bbdb9b1ef23d4bd0d5edb443e80dd16",
              "sha256": "11bd142cf3d824bb24cb1867ed9a58960bbdb9b1ef23d4bd0d5edb443e80dd16"
            },
            "monterey": {
              "cellar": ":any_skip_relocation",
              "url": "https://ghcr.io/v2/homebrew/core/fd/blobs/sha256:37e345f476ec684f75a111cbd51d6fd9e816b946fc3ef41abad27ccb7b814903",
              "sha256": "37e345f476ec684f75a111cbd51d6fd9e816b946fc3ef41abad27ccb7b814903"
            },
            "x86_64_linux": {
              "cellar": ":any_skip_relocation",
              "url": "https://ghcr.io/v2/homebrew/core/fd/blobs/sha256:a9362fedd45bacbe528d85a3995a0069e83f36fee622cc2e732c1b55a7f53a16",
              "sha256": "a9362fedd45bacbe528d85a3995a0069e83f36fee622cc2e732c1b55a7f53a16"
            }
          }
        }
      },
      "fish": {
        "version": "3.7.1",
        "bottle": {
          "rebuild": 0,
          "root_url": "https://ghcr.io/v2/homebrew/core",
          "files": {
            "arm64_sonoma": {
              "cellar": ":any",
              "url": "https://ghcr.io/v2/homebrew/core/fish/blobs/sha256:479ae1960544dc4a84c961f125bb9cc42c194ec2a04f0ffb1591e0c3c1d7d577",
              "sha256": "479ae1960544dc4a84c961f125bb9cc42c194ec2a04f0ffb1591e0c3c1d7d577"
            },
            "arm64_ventura": {
              "cellar": ":any",
              "url": "https://ghcr.io/v2/homebrew/core/fish/blobs/sha256:51719eb992cbea31b99828036479b510011c1b4eef131a7b684bf4835f01374e",
              "sha256": "51719eb992cbea31b99828036479b510011c1b4eef131a7b684bf4835f01374e"
            },
            "arm64_monterey": {
              "cellar": ":any",
              "url": "https://ghcr.io/v2/homebrew/core/fish/blobs/sha256:0261f26bf449353f84f83ebfe3922fb2d6a0f98e65c551f3d3b14d0e26e78723",
              "sha256": "0261f26bf449353f84f83ebfe3922fb2d6a0f98e65c551f3d3b14d0e26e78723"
            },
            "sonoma": {
              "cellar": ":any",
              "url": "https://ghcr.io/v2/homebrew/core/fish/blobs/sha256:a5b25fde2926a00b08d77798c52030543252418733442fc25eb1e0ce99b95010",
              "sha256": "a5b25fde2926a00b08d77798c52030543252418733442fc25eb1e0ce99b95010"
            },
            "ventura": {
              "cellar": ":any",
              "url": "https://ghcr.io/v2/homebrew/core/fish/blobs/sha256:f2d8ddb5b5e4a29dc9e39230845b514c9fc169e5f2922a1369bd72decc141886",
              "sha256": "f2d8ddb5b5e4a29dc9e39230845b514c9fc169e5f2922a1369bd72decc141886"
            },
            "monterey": {
              "cellar": ":any",
              "url": "https://ghcr.io/v2/homebrew/core/fish/blobs/sha256:8518a301b9136ecbd87373b39c6736fae1fc0569da2fa8be7d5f066f1b320fd0",
              "sha256": "8518a301b9136ecbd87373b39c6736fae1fc0569da2fa8be7d5f066f1b320fd0"
            },
            "x86_64_linux": {
              "cellar": ":any_skip_relocation",
              "url": "https://ghcr.io/v2/homebrew/core/fish/blobs/sha256:c69075343a17848c5f56d4af091e84604f7447fd91d62ebd92ce20b9eb67f2b5",
              "sha256": "c69075343a17848c5f56d4af091e84604f7447fd91d62ebd92ce20b9eb67f2b5"
            }
          }
        }
      },
      "fzf": {
        "version": "0.50.0",
        "bottle": {
          "rebuild": 0,
          "root_url": "https://ghcr.io/v2/homebrew/core",
          "files": {
            "arm64_sonoma": {
              "cellar": ":any_skip_relocation",
              "url": "https://ghcr.io/v2/homebrew/core/fzf/blobs/sha256:ee0cb03df39480274049dd74db3b4debc0a1c368dcfb5919fbe94aa5b7ab4703",
              "sha256": "ee0cb03df39480274049dd74db3b4debc0a1c368dcfb5919fbe94aa5b7ab4703"
            },
            "arm64_ventura": {
              "cellar": ":any_skip_relocation",
              "url": "https://ghcr.io/v2/homebrew/core/fzf/blobs/sha256:081e59919fd672bdce4c8b02228a71f63084bb699eb8bb0076bfaeaa6c3674d7",
              "sha256": "081e59919fd672bdce4c8b02228a71f63084bb699eb8bb0076bfaeaa6c3674d7"
            },
            "arm64_monterey": {
              "cellar": ":any_skip_relocation",
              "url": "https://ghcr.io/v2/homebrew/core/fzf/blobs/sha256:9c2870cc2f40e7f2a08ec71f5b121d56946937b096b4e5d794d265ccfe26bcc9",
              "sha256": "9c2870cc2f40e7f2a08ec71f5b121d56946937b096b4e5d794d265ccfe26bcc9"
            },
            "sonoma": {
              "cellar": ":any_skip_relocation",
              "url": "https://ghcr.io/v2/homebrew/core/fzf/blobs/sha256:e3be141e37ce64649ff4f568a3e16db95889dcdd12ec19b0f5fa823b13ace92e",
              "sha256": "e3be141e37ce64649ff4f568a3e16db95889dcdd12ec19b0f5fa823b13ace92e"
            },
            "ventura": {
              "cellar": ":any_skip_relocation",
              "url": "https://ghcr.io/v2/homebrew/core/fzf/blobs/sha256:c8d8a586081745f077ce8346ecc58688582fd9946a5f5d152983492e5c95b378",
              "sha256": "c8d8a586081745f077ce8346ecc58688582fd9946a5f5d152983492e5c95b378"
            },
            "monterey": {
              "cellar": ":any_skip_relocation",
              "url": "https://ghcr.io/v2/homebrew/core/fzf/blobs/sha256:3acc95f5a2732f02f8635bf9b74e6097d5a0f595723da7d4dd2a7aeae1345a34",
              "sha256": "3acc95f5a2732f02f8635bf9b74e6097d5a0f595723da7d4dd2a7aeae1345a34"
            },
            "x86_64_linux": {
              "cellar": ":any_skip_relocation",
              "url": "https://ghcr.io/v2/homebrew/core/fzf/blobs/sha256:e9537887f79d1b2be96fe2028d2d6d4834aa89e3335dc872d642b3f793764992",
              "sha256": "e9537887f79d1b2be96fe2028d2d6d4834aa89e3335dc872d642b3f793764992"
            }
          }
        }
      },
      "git-delta": {
        "version": "0.17.0",
        "bottle": {
          "rebuild": 0,
          "root_url": "https://ghcr.io/v2/homebrew/core",
          "files": {
            "arm64_sonoma": {
              "cellar": ":any_skip_relocation",
              "url": "https://ghcr.io/v2/homebrew/core/git-delta/blobs/sha256:0857ee2533e5731a3ff70fbba14bedf6ee066de4b3954fcac2a5291e781a5776",
              "sha256": "0857ee2533e5731a3ff70fbba14bedf6ee066de4b3954fcac2a5291e781a5776"
            },
            "arm64_ventura": {
              "cellar": ":any_skip_relocation",
              "url": "https://ghcr.io/v2/homebrew/core/git-delta/blobs/sha256:1fd816757a69671cda27b70e981d137465988d6abf672fad9d643ff175448589",
              "sha256": "1fd816757a69671cda27b70e981d137465988d6abf672fad9d643ff175448589"
            },
            "arm64_monterey": {
              "cellar": ":any_skip_relocation",
              "url": "https://ghcr.io/v2/homebrew/core/git-delta/blobs/sha256:ddd619480dbd050fee0293cdfa73d8bace0d1b7d851c34ed7d390c57bf8110d3",
              "sha256": "ddd619480dbd050fee0293cdfa73d8bace0d1b7d851c34ed7d390c57bf8110d3"
            },
            "sonoma": {
              "cellar": ":any_skip_relocation",
              "url": "https://ghcr.io/v2/homebrew/core/git-delta/blobs/sha256:d4562d1713f211739bad31fa4f8560d5b3c3d7bd8f7a61a4743552b0c6e3f81b",
              "sha256": "d4562d1713f211739bad31fa4f8560d5b3c3d7bd8f7a61a4743552b0c6e3f81b"
            },
            "ventura": {
              "cellar": ":any_skip_relocation",
              "url": "https://ghcr.io/v2/homebrew/core/git-delta/blobs/sha256:3ae765b906ec45cef98611ebfb0421d0d64206d6dd7065c86bb14d16eb529b6a",
              "sha256": "3ae765b906ec45cef98611ebfb0421d0d64206d6dd7065c86bb14d16eb529b6a"
            },
            "monterey": {
              "cellar": ":any_skip_relocation",
              "url": "https://ghcr.io/v2/homebrew/core/git-delta/blobs/sha256:3d9797138ddc479b9ed8a180c30bf350b88c08a551ea6a43d34870fe448c8978",
              "sha256": "3d9797138ddc479b9ed8a180c30bf350b88c08a551ea6a43d34870fe448c8978"
            },
            "x86_64_linux": {
              "cellar": ":any_skip_relocation",
              "url": "https://ghcr.io/v2/homebrew/core/git-delta/blobs/sha256:f55330791412a4933e7efa64dcfaaac315830d7e90f27c79e92f3c266c77688a",
              "sha256": "f55330791412a4933e7efa64dcfaaac315830d7e90f27c79e92f3c266c77688a"
            }
          }
        }
      },
      "libssh": {
        "version": "0.10.6",
        "bottle": {
          "rebuild": 0,
          "root_url": "https://ghcr.io/v2/homebrew/core",
          "files": {
            "arm64_sonoma": {
              "cellar": ":any",
              "url": "https://ghcr.io/v2/homebrew/core/libssh/blobs/sha256:f46550586eea1bbce8a418c9ce7621909aaad4b96d98004289ea12ccd4593201",
              "sha256": "f46550586eea1bbce8a418c9ce7621909aaad4b96d98004289ea12ccd4593201"
            },
            "arm64_ventura": {
              "cellar": ":any",
              "url": "https://ghcr.io/v2/homebrew/core/libssh/blobs/sha256:c6cfcd06891daf88f1995cb4165ffd113edfaed6ab3aedc73ffd93ded8f9f1c3",
              "sha256": "c6cfcd06891daf88f1995cb4165ffd113edfaed6ab3aedc73ffd93ded8f9f1c3"
            },
            "arm64_monterey": {
              "cellar": ":any",
              "url": "https://ghcr.io/v2/homebrew/core/libssh/blobs/sha256:18b4ce639a0259997f4c40ef65168b293dde5ea3b5920a0c6daa1945bf2d955b",
              "sha256": "18b4ce639a0259997f4c40ef65168b293dde5ea3b5920a0c6daa1945bf2d955b"
            },
            "sonoma": {
              "cellar": ":any",
              "url": "https://ghcr.io/v2/homebrew/core/libssh/blobs/sha256:efd1364d0cf49efedae7884db885c77d49e3013e188e902a0aaa4936c9fb1db5",
              "sha256": "efd1364d0cf49efedae7884db885c77d49e3013e188e902a0aaa4936c9fb1db5"
            },
            "ventura": {
              "cellar": ":any",
              "url": "https://ghcr.io/v2/homebrew/core/libssh/blobs/sha256:cb08ff2cf90eb31fa277a53591d3c173ab3e16a6f8ba81a7707568e9bf4603bc",
              "sha256": "cb08ff2cf90eb31fa277a53591d3c173ab3e16a6f8ba81a7707568e9bf4603bc"
            },
            "monterey": {
              "cellar": ":any",
              "url": "https://ghcr.io/v2/homebrew/core/libssh/blobs/sha256:aee1684ae587d1f87fa05b1193b0d80c63e0e43b6b531441bdbd9772032d01b6",
              "sha256": "aee1684ae587d1f87fa05b1193b0d80c63e0e43b6b531441bdbd9772032d01b6"
            },
            "x86_64_linux": {
              "cellar": ":any_skip_relocation",
              "url": "https://ghcr.io/v2/homebrew/core/libssh/blobs/sha256:7ad6f0fd7ab747f78a8d7df030423e98be8b55f58a6c495686983e2046706706",
              "sha256": "7ad6f0fd7ab747f78a8d7df030423e98be8b55f58a6c495686983e2046706706"
            }
          }
        }
      },
      "macos-trash": {
        "version": "1.2.0",
        "bottle": {
          "rebuild": 0,
          "root_url": "https://ghcr.io/v2/homebrew/core",
          "files": {
            "arm64_sonoma": {
              "cellar": ":any_skip_relocation",
              "url": "https://ghcr.io/v2/homebrew/core/macos-trash/blobs/sha256:34f68f4aaee66e7a5db78072b47c51b9926b11b03b4fad43a71338f5db9e06b7",
              "sha256": "34f68f4aaee66e7a5db78072b47c51b9926b11b03b4fad43a71338f5db9e06b7"
            },
            "arm64_ventura": {
              "cellar": ":any_skip_relocation",
              "url": "https://ghcr.io/v2/homebrew/core/macos-trash/blobs/sha256:14d22be61e2e75a7592b42234d0e62696340551aef10bb53d1996bd7e6af649d",
              "sha256": "14d22be61e2e75a7592b42234d0e62696340551aef10bb53d1996bd7e6af649d"
            },
            "arm64_monterey": {
              "cellar": ":any_skip_relocation",
              "url": "https://ghcr.io/v2/homebrew/core/macos-trash/blobs/sha256:0cff573086ce20b6b3c1ace838570390605cd758965e455c1b36b097b3130ccb",
              "sha256": "0cff573086ce20b6b3c1ace838570390605cd758965e455c1b36b097b3130ccb"
            },
            "arm64_big_sur": {
              "cellar": ":any_skip_relocation",
              "url": "https://ghcr.io/v2/homebrew/core/macos-trash/blobs/sha256:557c7c851c37f3cc90607e0565ee96e01f346ea675dcd2d894d5949471c90375",
              "sha256": "557c7c851c37f3cc90607e0565ee96e01f346ea675dcd2d894d5949471c90375"
            },
            "sonoma": {
              "cellar": ":any_skip_relocation",
              "url": "https://ghcr.io/v2/homebrew/core/macos-trash/blobs/sha256:3338a9e0978aa7763eeaacc726a284754ee3ec0120b40cad11b2a9013ccfe859",
              "sha256": "3338a9e0978aa7763eeaacc726a284754ee3ec0120b40cad11b2a9013ccfe859"
            },
            "ventura": {
              "cellar": ":any_skip_relocation",
              "url": "https://ghcr.io/v2/homebrew/core/macos-trash/blobs/sha256:f9e177eaa76b291ca8aab09866bcf8ad323fabc12f2c9ceeece59131cd3b67a3",
              "sha256": "f9e177eaa76b291ca8aab09866bcf8ad323fabc12f2c9ceeece59131cd3b67a3"
            },
            "monterey": {
              "cellar": ":any_skip_relocation",
              "url": "https://ghcr.io/v2/homebrew/core/macos-trash/blobs/sha256:14e572ed0ed3b36e475357e7fe67b2a575da6f17b190350c9aec51fb08f45e7f",
              "sha256": "14e572ed0ed3b36e475357e7fe67b2a575da6f17b190350c9aec51fb08f45e7f"
            },
            "big_sur": {
              "cellar": ":any_skip_relocation",
              "url": "https://ghcr.io/v2/homebrew/core/macos-trash/blobs/sha256:42e5185162cd75cb1e660beacfff18fa404dc98dcb5c5249d117c8dfe5fa6a53",
              "sha256": "42e5185162cd75cb1e660beacfff18fa404dc98dcb5c5249d117c8dfe5fa6a53"
            },
            "catalina": {
              "cellar": ":any",
              "url": "https://ghcr.io/v2/homebrew/core/macos-trash/blobs/sha256:bee0b6a9d5e1f9b23a9513a58d89b924ab3343613e94a62846eed2f9df8108d4",
              "sha256": "bee0b6a9d5e1f9b23a9513a58d89b924ab3343613e94a62846eed2f9df8108d4"
            }
          }
        }
      },
      "mas": {
        "version": "1.8.6",
        "bottle": {
          "rebuild": 0,
          "root_url": "https://ghcr.io/v2/homebrew/core",
          "files": {
            "arm64_sonoma": {
              "cellar": ":any_skip_relocation",
              "url": "https://ghcr.io/v2/homebrew/core/mas/blobs/sha256:7b11bfefcb43e9a423ff301f7bbc29b0fb86044bf93442f243c5a8a67d8d4869",
              "sha256": "7b11bfefcb43e9a423ff301f7bbc29b0fb86044bf93442f243c5a8a67d8d4869"
            },
            "arm64_ventura": {
              "cellar": ":any_skip_relocation",
              "url": "https://ghcr.io/v2/homebrew/core/mas/blobs/sha256:e49511dd1283813c4420aec9fc3b3167d18f9fdbb51d82b1e479b628d5312342",
              "sha256": "e49511dd1283813c4420aec9fc3b3167d18f9fdbb51d82b1e479b628d5312342"
            },
            "arm64_monterey": {
              "cellar": ":any_skip_relocation",
              "url": "https://ghcr.io/v2/homebrew/core/mas/blobs/sha256:379d46e2657be295321f1603dc1df28130ea0b5b264ceb192a9ba488d77c7a98",
              "sha256": "379d46e2657be295321f1603dc1df28130ea0b5b264ceb192a9ba488d77c7a98"
            },
            "arm64_big_sur": {
              "cellar": ":any_skip_relocation",
              "url": "https://ghcr.io/v2/homebrew/core/mas/blobs/sha256:918a1484de106940f7bebc936e1ded87d7b65652054b09204887ad0651937ec4",
              "sha256": "918a1484de106940f7bebc936e1ded87d7b65652054b09204887ad0651937ec4"
            },
            "sonoma": {
              "cellar": ":any_skip_relocation",
              "url": "https://ghcr.io/v2/homebrew/core/mas/blobs/sha256:24e3057991ea1eed52eb4a27c0f17d794106770621e5a8bb975477dae135b82d",
              "sha256": "24e3057991ea1eed52eb4a27c0f17d794106770621e5a8bb975477dae135b82d"
            },
            "ventura": {
              "cellar": ":any_skip_relocation",
              "url": "https://ghcr.io/v2/homebrew/core/mas/blobs/sha256:6ef7788e28c46cdc0f916812f49dfeb1fabf2240a8c36f33ce34bcfb9df1502f",
              "sha256": "6ef7788e28c46cdc0f916812f49dfeb1fabf2240a8c36f33ce34bcfb9df1502f"
            },
            "monterey": {
              "cellar": ":any_skip_relocation",
              "url": "https://ghcr.io/v2/homebrew/core/mas/blobs/sha256:6b313f2f66d028cb7782c108d6e502ce73ccb9c08fac3bece0b057fcce5c4689",
              "sha256": "6b313f2f66d028cb7782c108d6e502ce73ccb9c08fac3bece0b057fcce5c4689"
            },
            "big_sur": {
              "cellar": ":any_skip_relocation",
              "url": "https://ghcr.io/v2/homebrew/core/mas/blobs/sha256:50b50f51219143fcb69c730b52b74011a76104f66348ea727d0200f7b375ae25",
              "sha256": "50b50f51219143fcb69c730b52b74011a76104f66348ea727d0200f7b375ae25"
            },
            "catalina": {
              "cellar": ":any_skip_relocation",
              "url": "https://ghcr.io/v2/homebrew/core/mas/blobs/sha256:d241d3b9156b033f3d2c31684a44de726297e07fd9bd5e3ccc4c36e4f1c3baf3",
              "sha256": "d241d3b9156b033f3d2c31684a44de726297e07fd9bd5e3ccc4c36e4f1c3baf3"
            }
          }
        }
      },
      "meson": {
        "version": "1.4.0",
        "bottle": {
          "rebuild": 0,
          "root_url": "https://ghcr.io/v2/homebrew/core",
          "files": {
            "all": {
              "cellar": ":any_skip_relocation",
              "url": "https://ghcr.io/v2/homebrew/core/meson/blobs/sha256:0754ab41a963c010173f20f5d8a13bb39078d3a26544aba20eb4071cc9914722",
              "sha256": "0754ab41a963c010173f20f5d8a13bb39078d3a26544aba20eb4071cc9914722"
            }
          }
        }
      },
      "mint": {
        "version": "0.17.5",
        "bottle": {
          "rebuild": 0,
          "root_url": "https://ghcr.io/v2/homebrew/core",
          "files": {
            "arm64_sonoma": {
              "cellar": ":any_skip_relocation",
              "url": "https://ghcr.io/v2/homebrew/core/mint/blobs/sha256:ada351985ef562807e7460f869c527bb314600311738a944219225226f43addf",
              "sha256": "ada351985ef562807e7460f869c527bb314600311738a944219225226f43addf"
            },
            "arm64_ventura": {
              "cellar": ":any_skip_relocation",
              "url": "https://ghcr.io/v2/homebrew/core/mint/blobs/sha256:250948fe6fc14179d7c381d084a90d6796861ba9a8456617cadda9ac62cbc2b8",
              "sha256": "250948fe6fc14179d7c381d084a90d6796861ba9a8456617cadda9ac62cbc2b8"
            },
            "arm64_monterey": {
              "cellar": ":any_skip_relocation",
              "url": "https://ghcr.io/v2/homebrew/core/mint/blobs/sha256:6546b80b980a45036415162189dd340b1f8d3f4e82a80d40a24e7b5dd672eb04",
              "sha256": "6546b80b980a45036415162189dd340b1f8d3f4e82a80d40a24e7b5dd672eb04"
            },
            "arm64_big_sur": {
              "cellar": ":any_skip_relocation",
              "url": "https://ghcr.io/v2/homebrew/core/mint/blobs/sha256:39f9d254b248a44bb44e399081b7e50a6c598834e2bf86bb7de3ebc349f11e0d",
              "sha256": "39f9d254b248a44bb44e399081b7e50a6c598834e2bf86bb7de3ebc349f11e0d"
            },
            "sonoma": {
              "cellar": ":any_skip_relocation",
              "url": "https://ghcr.io/v2/homebrew/core/mint/blobs/sha256:154b8b94602d6d38249cfa936f7d071d9113935b3756d5781021fe04c3971e29",
              "sha256": "154b8b94602d6d38249cfa936f7d071d9113935b3756d5781021fe04c3971e29"
            },
            "ventura": {
              "cellar": ":any_skip_relocation",
              "url": "https://ghcr.io/v2/homebrew/core/mint/blobs/sha256:068f9984e81b578f2ed6cef4cc9659835a689bdecf121651ea24ebcfefd49339",
              "sha256": "068f9984e81b578f2ed6cef4cc9659835a689bdecf121651ea24ebcfefd49339"
            },
            "monterey": {
              "cellar": ":any_skip_relocation",
              "url": "https://ghcr.io/v2/homebrew/core/mint/blobs/sha256:f8b09a640942548a151c7450c85f33d40162c7540049666131740d49c68e61e6",
              "sha256": "f8b09a640942548a151c7450c85f33d40162c7540049666131740d49c68e61e6"
            },
            "big_sur": {
              "cellar": ":any_skip_relocation",
              "url": "https://ghcr.io/v2/homebrew/core/mint/blobs/sha256:528ea907912e8002cd3a769e8ddda4556cf2482122c3f848a7d923146df37101",
              "sha256": "528ea907912e8002cd3a769e8ddda4556cf2482122c3f848a7d923146df37101"
            },
            "x86_64_linux": {
              "cellar": "/home/linuxbrew/.linuxbrew/Cellar",
              "url": "https://ghcr.io/v2/homebrew/core/mint/blobs/sha256:7c8dd63f0310a46f67550f92ee48a370fadfc1a4d884b8a3904a36b7b610b3f2",
              "sha256": "7c8dd63f0310a46f67550f92ee48a370fadfc1a4d884b8a3904a36b7b610b3f2"
            }
          }
        }
      },
      "neovim": {
        "version": "0.9.5",
        "bottle": {
          "rebuild": 0,
          "root_url": "https://ghcr.io/v2/homebrew/core",
          "files": {
            "arm64_sonoma": {
              "cellar": "/opt/homebrew/Cellar",
              "url": "https://ghcr.io/v2/homebrew/core/neovim/blobs/sha256:dceae593d688ebcab98d65cb2a8c885493ce7ceba0d87dff5e35cc9a00840382",
              "sha256": "dceae593d688ebcab98d65cb2a8c885493ce7ceba0d87dff5e35cc9a00840382"
            },
            "arm64_ventura": {
              "cellar": "/opt/homebrew/Cellar",
              "url": "https://ghcr.io/v2/homebrew/core/neovim/blobs/sha256:de0f296454dd02e139ad69f6a193e597691528988389214407c4ea08677e26fb",
              "sha256": "de0f296454dd02e139ad69f6a193e597691528988389214407c4ea08677e26fb"
            },
            "arm64_monterey": {
              "cellar": "/opt/homebrew/Cellar",
              "url": "https://ghcr.io/v2/homebrew/core/neovim/blobs/sha256:b7b6fc8764383e84657912cc17197f40fe112382dd98299713abc273131acaef",
              "sha256": "b7b6fc8764383e84657912cc17197f40fe112382dd98299713abc273131acaef"
            },
            "sonoma": {
              "cellar": "/usr/local/Cellar",
              "url": "https://ghcr.io/v2/homebrew/core/neovim/blobs/sha256:c0d17b581f7584ea6de7e131cfbb89374d9753464fc5030d262aadf186aefb11",
              "sha256": "c0d17b581f7584ea6de7e131cfbb89374d9753464fc5030d262aadf186aefb11"
            },
            "ventura": {
              "cellar": "/usr/local/Cellar",
              "url": "https://ghcr.io/v2/homebrew/core/neovim/blobs/sha256:56162a099233d89e325b024ac3052cd7a0c7bc667071fb83f5ba4ebbeffcf8a5",
              "sha256": "56162a099233d89e325b024ac3052cd7a0c7bc667071fb83f5ba4ebbeffcf8a5"
            },
            "monterey": {
              "cellar": "/usr/local/Cellar",
              "url": "https://ghcr.io/v2/homebrew/core/neovim/blobs/sha256:cb2591d244f1ec97c38fc5f7f0d0a358d0d03a1a94432c28c1cc7c577dddb369",
              "sha256": "cb2591d244f1ec97c38fc5f7f0d0a358d0d03a1a94432c28c1cc7c577dddb369"
            },
            "x86_64_linux": {
              "cellar": "/home/linuxbrew/.linuxbrew/Cellar",
              "url": "https://ghcr.io/v2/homebrew/core/neovim/blobs/sha256:ab667b4b8ce2b55f8c654d85520831f05590b1df4c2ddd277149d24681643a20",
              "sha256": "ab667b4b8ce2b55f8c654d85520831f05590b1df4c2ddd277149d24681643a20"
            }
          }
        }
      },
      "nushell": {
        "version": "0.92.2",
        "bottle": {
          "rebuild": 0,
          "root_url": "https://ghcr.io/v2/homebrew/core",
          "files": {
            "arm64_sonoma": {
              "cellar": ":any",
              "url": "https://ghcr.io/v2/homebrew/core/nushell/blobs/sha256:9075a85bfa468ece23b6c46c4ba5650505b2ff25b98b7fd3ae1bbac69f8c1efe",
              "sha256": "9075a85bfa468ece23b6c46c4ba5650505b2ff25b98b7fd3ae1bbac69f8c1efe"
            },
            "arm64_ventura": {
              "cellar": ":any",
              "url": "https://ghcr.io/v2/homebrew/core/nushell/blobs/sha256:0330342ebe202e56b55e1808b968a7c808f2b293a10af85085bd9413e59a7849",
              "sha256": "0330342ebe202e56b55e1808b968a7c808f2b293a10af85085bd9413e59a7849"
            },
            "arm64_monterey": {
              "cellar": ":any",
              "url": "https://ghcr.io/v2/homebrew/core/nushell/blobs/sha256:f6963d36f4d05aeac13626f7d23a6588203dc17a8ee66fe81b319d42422859a6",
              "sha256": "f6963d36f4d05aeac13626f7d23a6588203dc17a8ee66fe81b319d42422859a6"
            },
            "sonoma": {
              "cellar": ":any",
              "url": "https://ghcr.io/v2/homebrew/core/nushell/blobs/sha256:fcf7f7c06ba30b1cd105119052605a2a04fcb4aef249f09db0e826ce3ac4c9f3",
              "sha256": "fcf7f7c06ba30b1cd105119052605a2a04fcb4aef249f09db0e826ce3ac4c9f3"
            },
            "ventura": {
              "cellar": ":any",
              "url": "https://ghcr.io/v2/homebrew/core/nushell/blobs/sha256:2f7a51eb82c10eaf25ce7e9db7f75916332e7accdc51da60a62c6a720b553bb6",
              "sha256": "2f7a51eb82c10eaf25ce7e9db7f75916332e7accdc51da60a62c6a720b553bb6"
            },
            "monterey": {
              "cellar": ":any",
              "url": "https://ghcr.io/v2/homebrew/core/nushell/blobs/sha256:ce728f4fcbe8cbf819ffdad0073c4ced1bf977c783565221902fb62051c43f6a",
              "sha256": "ce728f4fcbe8cbf819ffdad0073c4ced1bf977c783565221902fb62051c43f6a"
            },
            "x86_64_linux": {
              "cellar": ":any_skip_relocation",
              "url": "https://ghcr.io/v2/homebrew/core/nushell/blobs/sha256:d4a5f4b07ce62ba4bef8d4fa0d92ec8a26c33d5233c92e2e6009e2769ecc992c",
              "sha256": "d4a5f4b07ce62ba4bef8d4fa0d92ec8a26c33d5233c92e2e6009e2769ecc992c"
            }
          }
        }
      },
      "pandoc": {
        "version": "3.1.13",
        "bottle": {
          "rebuild": 0,
          "root_url": "https://ghcr.io/v2/homebrew/core",
          "files": {
            "arm64_sonoma": {
              "cellar": ":any_skip_relocation",
              "url": "https://ghcr.io/v2/homebrew/core/pandoc/blobs/sha256:5175052253fcaa29adf1e1ed6346f0aac2c774f7a0e6920f88df4d6585f0435d",
              "sha256": "5175052253fcaa29adf1e1ed6346f0aac2c774f7a0e6920f88df4d6585f0435d"
            },
            "arm64_ventura": {
              "cellar": ":any_skip_relocation",
              "url": "https://ghcr.io/v2/homebrew/core/pandoc/blobs/sha256:ed2d314e5adaea5ebc6cfb55559bb47660f36f34ae3904c7b1f8e3b5962b1103",
              "sha256": "ed2d314e5adaea5ebc6cfb55559bb47660f36f34ae3904c7b1f8e3b5962b1103"
            },
            "arm64_monterey": {
              "cellar": ":any_skip_relocation",
              "url": "https://ghcr.io/v2/homebrew/core/pandoc/blobs/sha256:b6d3f006a8ea6cce61725421edf05039732357cb7de17c37e6fe342f7e0d5325",
              "sha256": "b6d3f006a8ea6cce61725421edf05039732357cb7de17c37e6fe342f7e0d5325"
            },
            "sonoma": {
              "cellar": ":any_skip_relocation",
              "url": "https://ghcr.io/v2/homebrew/core/pandoc/blobs/sha256:0f506112393f6f3c6633c3192aae4e75bad13cd43d8e335fb0d5eb3f0577c70c",
              "sha256": "0f506112393f6f3c6633c3192aae4e75bad13cd43d8e335fb0d5eb3f0577c70c"
            },
            "ventura": {
              "cellar": ":any_skip_relocation",
              "url": "https://ghcr.io/v2/homebrew/core/pandoc/blobs/sha256:87f8b95cb03053d8475cbbd0e37f74697f3d75d2cade34b6f9489a11804f46b7",
              "sha256": "87f8b95cb03053d8475cbbd0e37f74697f3d75d2cade34b6f9489a11804f46b7"
            },
            "monterey": {
              "cellar": ":any_skip_relocation",
              "url": "https://ghcr.io/v2/homebrew/core/pandoc/blobs/sha256:18b0d37954b41416dedcc3e8e4dbae1d97048bd674c4415ebf00eb3f6659bba8",
              "sha256": "18b0d37954b41416dedcc3e8e4dbae1d97048bd674c4415ebf00eb3f6659bba8"
            },
            "x86_64_linux": {
              "cellar": ":any_skip_relocation",
              "url": "https://ghcr.io/v2/homebrew/core/pandoc/blobs/sha256:c3038a3827779e225db2076b9674112a5e910c372f0486f81d7fed010167ec4e",
              "sha256": "c3038a3827779e225db2076b9674112a5e910c372f0486f81d7fed010167ec4e"
            }
          }
        }
      },
      "pkg-config": {
        "version": "0.29.2_3",
        "bottle": {
          "rebuild": 0,
          "root_url": "https://ghcr.io/v2/homebrew/core",
          "files": {
            "arm64_sonoma": {
              "cellar": "/opt/homebrew/Cellar",
              "url": "https://ghcr.io/v2/homebrew/core/pkg-config/blobs/sha256:7b59abc0b5381065b1eab174217307af9324e0d02edf903171b29250ae58aeaf",
              "sha256": "7b59abc0b5381065b1eab174217307af9324e0d02edf903171b29250ae58aeaf"
            },
            "arm64_ventura": {
              "cellar": "/opt/homebrew/Cellar",
              "url": "https://ghcr.io/v2/homebrew/core/pkg-config/blobs/sha256:3ff612c5e44b945c8c0cc6df7d3edb407ca67cddad9c89f9ab99ced494b7a8c2",
              "sha256": "3ff612c5e44b945c8c0cc6df7d3edb407ca67cddad9c89f9ab99ced494b7a8c2"
            },
            "arm64_monterey": {
              "cellar": "/opt/homebrew/Cellar",
              "url": "https://ghcr.io/v2/homebrew/core/pkg-config/blobs/sha256:2af9bceb60b70a259f236f1d46d2bb24c4d0a4af8cd63d974dde4d76313711e0",
              "sha256": "2af9bceb60b70a259f236f1d46d2bb24c4d0a4af8cd63d974dde4d76313711e0"
            },
            "arm64_big_sur": {
              "cellar": "/opt/homebrew/Cellar",
              "url": "https://ghcr.io/v2/homebrew/core/pkg-config/blobs/sha256:ffd4491f62201d14b7eca6beff954a2ab265351589cd5b3b79b8bbb414485574",
              "sha256": "ffd4491f62201d14b7eca6beff954a2ab265351589cd5b3b79b8bbb414485574"
            },
            "sonoma": {
              "cellar": "/usr/local/Cellar",
              "url": "https://ghcr.io/v2/homebrew/core/pkg-config/blobs/sha256:421571f340277c62c5cc6fd68737bd7c4e085de113452ea49b33bcd46509bb12",
              "sha256": "421571f340277c62c5cc6fd68737bd7c4e085de113452ea49b33bcd46509bb12"
            },
            "ventura": {
              "cellar": "/usr/local/Cellar",
              "url": "https://ghcr.io/v2/homebrew/core/pkg-config/blobs/sha256:c44b1544815518726d280d92d6f6df09bd45e41ad20fd43424725c1c20760be8",
              "sha256": "c44b1544815518726d280d92d6f6df09bd45e41ad20fd43424725c1c20760be8"
            },
            "monterey": {
              "cellar": "/usr/local/Cellar",
              "url": "https://ghcr.io/v2/homebrew/core/pkg-config/blobs/sha256:a6ba80711f98b65d8a2bf2c9278540860415e9b5e545da338a4d94f39d119285",
              "sha256": "a6ba80711f98b65d8a2bf2c9278540860415e9b5e545da338a4d94f39d119285"
            },
            "big_sur": {
              "cellar": "/usr/local/Cellar",
              "url": "https://ghcr.io/v2/homebrew/core/pkg-config/blobs/sha256:0040b6ebe07f60549800b211343fd5fb3cf83c866d9f62e40f5fb2f38b71e161",
              "sha256": "0040b6ebe07f60549800b211343fd5fb3cf83c866d9f62e40f5fb2f38b71e161"
            },
            "catalina": {
              "cellar": "/usr/local/Cellar",
              "url": "https://ghcr.io/v2/homebrew/core/pkg-config/blobs/sha256:80f141e695f73bd058fd82e9f539dc67471666ff6800c5e280b5af7d3050f435",
              "sha256": "80f141e695f73bd058fd82e9f539dc67471666ff6800c5e280b5af7d3050f435"
            },
            "mojave": {
              "cellar": "/usr/local/Cellar",
              "url": "https://ghcr.io/v2/homebrew/core/pkg-config/blobs/sha256:0d14b797dba0e0ab595c9afba8ab7ef9c901b60b4f806b36580ef95ebb370232",
              "sha256": "0d14b797dba0e0ab595c9afba8ab7ef9c901b60b4f806b36580ef95ebb370232"
            },
            "high_sierra": {
              "cellar": "/usr/local/Cellar",
              "url": "https://ghcr.io/v2/homebrew/core/pkg-config/blobs/sha256:8c6160305abd948b8cf3e0d5c6bb0df192fa765bbb9535dda0b573cb60abbe52",
              "sha256": "8c6160305abd948b8cf3e0d5c6bb0df192fa765bbb9535dda0b573cb60abbe52"
            },
            "x86_64_linux": {
              "cellar": ":any_skip_relocation",
              "url": "https://ghcr.io/v2/homebrew/core/pkg-config/blobs/sha256:3d9b8bf9b7b4bd08086be1104e3e18afb1c437dfaca03e6e7df8f2710b9c1c1a",
              "sha256": "3d9b8bf9b7b4bd08086be1104e3e18afb1c437dfaca03e6e7df8f2710b9c1c1a"
            }
          }
        }
      },
      "ripgrep": {
        "version": "14.1.0",
        "bottle": {
          "rebuild": 0,
          "root_url": "https://ghcr.io/v2/homebrew/core",
          "files": {
            "arm64_sonoma": {
              "cellar": ":any",
              "url": "https://ghcr.io/v2/homebrew/core/ripgrep/blobs/sha256:22cc1f3423a7fddb550fb94bd2715ce5455076d17f2c88ef0c157749ea4b87d6",
              "sha256": "22cc1f3423a7fddb550fb94bd2715ce5455076d17f2c88ef0c157749ea4b87d6"
            },
            "arm64_ventura": {
              "cellar": ":any",
              "url": "https://ghcr.io/v2/homebrew/core/ripgrep/blobs/sha256:837aaf1b32879f1177f9599e67d73a7f474d25ad5d3ba053216b05cbf8539b2a",
              "sha256": "837aaf1b32879f1177f9599e67d73a7f474d25ad5d3ba053216b05cbf8539b2a"
            },
            "arm64_monterey": {
              "cellar": ":any",
              "url": "https://ghcr.io/v2/homebrew/core/ripgrep/blobs/sha256:9a6e788f0a35d38ed325c7880e772775fe04c61e27c3506785ce10f6095ec891",
              "sha256": "9a6e788f0a35d38ed325c7880e772775fe04c61e27c3506785ce10f6095ec891"
            },
            "sonoma": {
              "cellar": ":any",
              "url": "https://ghcr.io/v2/homebrew/core/ripgrep/blobs/sha256:35ee71e72b612f0cc7748ff0e58b4cdfeec0693c83df6f553d9be1160cc7ba74",
              "sha256": "35ee71e72b612f0cc7748ff0e58b4cdfeec0693c83df6f553d9be1160cc7ba74"
            },
            "ventura": {
              "cellar": ":any",
              "url": "https://ghcr.io/v2/homebrew/core/ripgrep/blobs/sha256:42eaa5b6b69a460c31c859c44b263d651e649d6eae4478651b09e155a14faf64",
              "sha256": "42eaa5b6b69a460c31c859c44b263d651e649d6eae4478651b09e155a14faf64"
            },
            "monterey": {
              "cellar": ":any",
              "url": "https://ghcr.io/v2/homebrew/core/ripgrep/blobs/sha256:69c2e49f5d8054e1d2efb6e77aa8f83183b6bcfd6470354da30a2bfb251edd00",
              "sha256": "69c2e49f5d8054e1d2efb6e77aa8f83183b6bcfd6470354da30a2bfb251edd00"
            },
            "x86_64_linux": {
              "cellar": ":any_skip_relocation",
              "url": "https://ghcr.io/v2/homebrew/core/ripgrep/blobs/sha256:bf2810ab20dc5006c02d9ced344bb47f1c2e5770ae051c35f81faaa34fe48d9d",
              "sha256": "bf2810ab20dc5006c02d9ced344bb47f1c2e5770ae051c35f81faaa34fe48d9d"
            }
          }
        }
      },
      "sccache": {
        "version": "0.8.0",
        "bottle": {
          "rebuild": 0,
          "root_url": "https://ghcr.io/v2/homebrew/core",
          "files": {
            "arm64_sonoma": {
              "cellar": ":any_skip_relocation",
              "url": "https://ghcr.io/v2/homebrew/core/sccache/blobs/sha256:784f213119a53a81aa0be9a5a9263699a4ae14f99dd81142b5a9cd61b955fa65",
              "sha256": "784f213119a53a81aa0be9a5a9263699a4ae14f99dd81142b5a9cd61b955fa65"
            },
            "arm64_ventura": {
              "cellar": ":any_skip_relocation",
              "url": "https://ghcr.io/v2/homebrew/core/sccache/blobs/sha256:9d5fe8beb7c9601b5e8ff1438b53266ab104cf394448c568fa62c17d8e99ee2b",
              "sha256": "9d5fe8beb7c9601b5e8ff1438b53266ab104cf394448c568fa62c17d8e99ee2b"
            },
            "arm64_monterey": {
              "cellar": ":any_skip_relocation",
              "url": "https://ghcr.io/v2/homebrew/core/sccache/blobs/sha256:47e60c8161afd0e31876912e09afc2e72eda819cde6283e7f20178928d0be622",
              "sha256": "47e60c8161afd0e31876912e09afc2e72eda819cde6283e7f20178928d0be622"
            },
            "sonoma": {
              "cellar": ":any_skip_relocation",
              "url": "https://ghcr.io/v2/homebrew/core/sccache/blobs/sha256:8358f677987a05d277a115f205a86435ab5eb85883de4ae0bfc2352a4d9c9f03",
              "sha256": "8358f677987a05d277a115f205a86435ab5eb85883de4ae0bfc2352a4d9c9f03"
            },
            "ventura": {
              "cellar": ":any_skip_relocation",
              "url": "https://ghcr.io/v2/homebrew/core/sccache/blobs/sha256:1ee4d1e1ae6cc912788ed4406bed860cedf051d80f2730b32c70e5cde7dd2280",
              "sha256": "1ee4d1e1ae6cc912788ed4406bed860cedf051d80f2730b32c70e5cde7dd2280"
            },
            "monterey": {
              "cellar": ":any_skip_relocation",
              "url": "https://ghcr.io/v2/homebrew/core/sccache/blobs/sha256:702d85599300b05ab8929a6a0847b2b37215af2ae6f31d3085f1286d7787b1fe",
              "sha256": "702d85599300b05ab8929a6a0847b2b37215af2ae6f31d3085f1286d7787b1fe"
            },
            "x86_64_linux": {
              "cellar": ":any_skip_relocation",
              "url": "https://ghcr.io/v2/homebrew/core/sccache/blobs/sha256:f2d94f0316e1a44ce545c8f7b6b54fae3e276f1b9dd98a5587e13906ad2a8bd4",
              "sha256": "f2d94f0316e1a44ce545c8f7b6b54fae3e276f1b9dd98a5587e13906ad2a8bd4"
            }
          }
        }
      },
      "starship": {
        "version": "1.18.2",
        "bottle": {
          "rebuild": 0,
          "root_url": "https://ghcr.io/v2/homebrew/core",
          "files": {
            "arm64_sonoma": {
              "cellar": ":any_skip_relocation",
              "url": "https://ghcr.io/v2/homebrew/core/starship/blobs/sha256:38e579d1d0b477e004118a7d61125692a76eb00b01f1ae61531a5de52a7d8fc9",
              "sha256": "38e579d1d0b477e004118a7d61125692a76eb00b01f1ae61531a5de52a7d8fc9"
            },
            "arm64_ventura": {
              "cellar": ":any_skip_relocation",
              "url": "https://ghcr.io/v2/homebrew/core/starship/blobs/sha256:91e8147b20a0e7a3a9764d661da4b5fc1bc56592ec7e49e2425ebf16f1717452",
              "sha256": "91e8147b20a0e7a3a9764d661da4b5fc1bc56592ec7e49e2425ebf16f1717452"
            },
            "arm64_monterey": {
              "cellar": ":any_skip_relocation",
              "url": "https://ghcr.io/v2/homebrew/core/starship/blobs/sha256:bf608eb41a558493c4dbd89d930954a1a2f8d812a027cf87a353e312a0973a53",
              "sha256": "bf608eb41a558493c4dbd89d930954a1a2f8d812a027cf87a353e312a0973a53"
            },
            "sonoma": {
              "cellar": ":any_skip_relocation",
              "url": "https://ghcr.io/v2/homebrew/core/starship/blobs/sha256:3ba8017db4aa930e60a95959657f79bbf2657aa11ec7997dc7c40c91a99ea47f",
              "sha256": "3ba8017db4aa930e60a95959657f79bbf2657aa11ec7997dc7c40c91a99ea47f"
            },
            "ventura": {
              "cellar": ":any_skip_relocation",
              "url": "https://ghcr.io/v2/homebrew/core/starship/blobs/sha256:bcb35b10e86547b05b46cfd1cb08ffae81a820a26e561a0b1e255a8ef23101f3",
              "sha256": "bcb35b10e86547b05b46cfd1cb08ffae81a820a26e561a0b1e255a8ef23101f3"
            },
            "monterey": {
              "cellar": ":any_skip_relocation",
              "url": "https://ghcr.io/v2/homebrew/core/starship/blobs/sha256:82825059b6915e6c03bb5d956bede8bc1df680e4ab038ae554b480307fb7374b",
              "sha256": "82825059b6915e6c03bb5d956bede8bc1df680e4ab038ae554b480307fb7374b"
            },
            "x86_64_linux": {
              "cellar": ":any_skip_relocation",
              "url": "https://ghcr.io/v2/homebrew/core/starship/blobs/sha256:176ebab8a44b0f9a563606d1c97d7e8c02f2cd95517eee8df4901270ba362894",
              "sha256": "176ebab8a44b0f9a563606d1c97d7e8c02f2cd95517eee8df4901270ba362894"
            }
          }
        }
      },
      "tealdeer": {
        "version": "1.6.1",
        "bottle": {
          "rebuild": 0,
          "root_url": "https://ghcr.io/v2/homebrew/core",
          "files": {
            "arm64_sonoma": {
              "cellar": ":any_skip_relocation",
              "url": "https://ghcr.io/v2/homebrew/core/tealdeer/blobs/sha256:79ad2cb455a6c9ce993e1e1027d979a6a711b214dc981d725e12796d4941e521",
              "sha256": "79ad2cb455a6c9ce993e1e1027d979a6a711b214dc981d725e12796d4941e521"
            },
            "arm64_ventura": {
              "cellar": ":any_skip_relocation",
              "url": "https://ghcr.io/v2/homebrew/core/tealdeer/blobs/sha256:03ed6d8a46dfaaad1f0f4198fa9479d6925f6bfd58f6d3c95b2d21f832360c00",
              "sha256": "03ed6d8a46dfaaad1f0f4198fa9479d6925f6bfd58f6d3c95b2d21f832360c00"
            },
            "arm64_monterey": {
              "cellar": ":any_skip_relocation",
              "url": "https://ghcr.io/v2/homebrew/core/tealdeer/blobs/sha256:fedd60d1a623724b3c66b436c8d1336f8978d6b1e0bf5b87c1891b63f72368cd",
              "sha256": "fedd60d1a623724b3c66b436c8d1336f8978d6b1e0bf5b87c1891b63f72368cd"
            },
            "arm64_big_sur": {
              "cellar": ":any_skip_relocation",
              "url": "https://ghcr.io/v2/homebrew/core/tealdeer/blobs/sha256:04aaa793695beba680085500b1c45ef336561f50743e6360b560eda2338fcbcd",
              "sha256": "04aaa793695beba680085500b1c45ef336561f50743e6360b560eda2338fcbcd"
            },
            "sonoma": {
              "cellar": ":any_skip_relocation",
              "url": "https://ghcr.io/v2/homebrew/core/tealdeer/blobs/sha256:c1b3021a87d410194d21c5b27a56805a57710b03fa8113ceef19323cee6919ee",
              "sha256": "c1b3021a87d410194d21c5b27a56805a57710b03fa8113ceef19323cee6919ee"
            },
            "ventura": {
              "cellar": ":any_skip_relocation",
              "url": "https://ghcr.io/v2/homebrew/core/tealdeer/blobs/sha256:d0ab45756b657907f05358c558e235e850394ec9d3bbdcb17fa288d1c0a22e5f",
              "sha256": "d0ab45756b657907f05358c558e235e850394ec9d3bbdcb17fa288d1c0a22e5f"
            },
            "monterey": {
              "cellar": ":any_skip_relocation",
              "url": "https://ghcr.io/v2/homebrew/core/tealdeer/blobs/sha256:833df803c5b64bfcbf2689da129632ade502d00fb83582ee322059cef358b3f2",
              "sha256": "833df803c5b64bfcbf2689da129632ade502d00fb83582ee322059cef358b3f2"
            },
            "big_sur": {
              "cellar": ":any_skip_relocation",
              "url": "https://ghcr.io/v2/homebrew/core/tealdeer/blobs/sha256:fb53881e8ff4d1a74d70bcd2a80c05fe2b34b350eb82c2bcca3ea4002826bf4a",
              "sha256": "fb53881e8ff4d1a74d70bcd2a80c05fe2b34b350eb82c2bcca3ea4002826bf4a"
            },
            "catalina": {
              "cellar": ":any_skip_relocation",
              "url": "https://ghcr.io/v2/homebrew/core/tealdeer/blobs/sha256:1968452b9b39f7b2581864a4547e45c07785aa307e48ee5416cfb7387fd5e3da",
              "sha256": "1968452b9b39f7b2581864a4547e45c07785aa307e48ee5416cfb7387fd5e3da"
            },
            "x86_64_linux": {
              "cellar": ":any_skip_relocation",
              "url": "https://ghcr.io/v2/homebrew/core/tealdeer/blobs/sha256:faacf0de290cdd866297f164e841e4ea31e5c3b930ec08caa13591f336b0d7e0",
              "sha256": "faacf0de290cdd866297f164e841e4ea31e5c3b930ec08caa13591f336b0d7e0"
            }
          }
        }
      },
      "yadm": {
        "version": "3.2.2",
        "bottle": {
          "rebuild": 0,
          "root_url": "https://ghcr.io/v2/homebrew/core",
          "files": {
            "all": {
              "cellar": ":any_skip_relocation",
              "url": "https://ghcr.io/v2/homebrew/core/yadm/blobs/sha256:fae6c470a2f67ecdcbfb2b973d78d74563759d4f39988f1be71c4641345b88ef",
              "sha256": "fae6c470a2f67ecdcbfb2b973d78d74563759d4f39988f1be71c4641345b88ef"
            }
          }
        }
      },
      "zoxide": {
        "version": "0.9.4",
        "bottle": {
          "rebuild": 0,
          "root_url": "https://ghcr.io/v2/homebrew/core",
          "files": {
            "arm64_sonoma": {
              "cellar": ":any_skip_relocation",
              "url": "https://ghcr.io/v2/homebrew/core/zoxide/blobs/sha256:f676f976bc36f800fb3e1501dac29b579493d4cfe09217bd9a7a78d7a6289ed3",
              "sha256": "f676f976bc36f800fb3e1501dac29b579493d4cfe09217bd9a7a78d7a6289ed3"
            },
            "arm64_ventura": {
              "cellar": ":any_skip_relocation",
              "url": "https://ghcr.io/v2/homebrew/core/zoxide/blobs/sha256:1e0633546aacf6a5b61e8f4f3a3267fc2fe20437bdef451523bf6f6280441bc2",
              "sha256": "1e0633546aacf6a5b61e8f4f3a3267fc2fe20437bdef451523bf6f6280441bc2"
            },
            "arm64_monterey": {
              "cellar": ":any_skip_relocation",
              "url": "https://ghcr.io/v2/homebrew/core/zoxide/blobs/sha256:7a8eb375e99c59cd6f24432d3dd80d4ad7d6e79f43de93c215cfa79f7a27ff33",
              "sha256": "7a8eb375e99c59cd6f24432d3dd80d4ad7d6e79f43de93c215cfa79f7a27ff33"
            },
            "sonoma": {
              "cellar": ":any_skip_relocation",
              "url": "https://ghcr.io/v2/homebrew/core/zoxide/blobs/sha256:117d3d68c603514fd9c0db890f2cfb6337748b897e15d0f60ff1f80adcf72535",
              "sha256": "117d3d68c603514fd9c0db890f2cfb6337748b897e15d0f60ff1f80adcf72535"
            },
            "ventura": {
              "cellar": ":any_skip_relocation",
              "url": "https://ghcr.io/v2/homebrew/core/zoxide/blobs/sha256:c57845be5b2e1c2b1c0a1830ea238790be6010ac8471bff993e52e29e3588a38",
              "sha256": "c57845be5b2e1c2b1c0a1830ea238790be6010ac8471bff993e52e29e3588a38"
            },
            "monterey": {
              "cellar": ":any_skip_relocation",
              "url": "https://ghcr.io/v2/homebrew/core/zoxide/blobs/sha256:599d8d2fcd5f2dddf52ba4815bb310e3344f2b30bae902a6aff8956ef4991f1d",
              "sha256": "599d8d2fcd5f2dddf52ba4815bb310e3344f2b30bae902a6aff8956ef4991f1d"
            },
            "x86_64_linux": {
              "cellar": ":any_skip_relocation",
              "url": "https://ghcr.io/v2/homebrew/core/zoxide/blobs/sha256:778fb5fd4766a8a149ad721195b626bf7efc8d11da7ae15b9a5d95a2b5a07365",
              "sha256": "778fb5fd4766a8a149ad721195b626bf7efc8d11da7ae15b9a5d95a2b5a07365"
            }
          }
        }
      }
    },
    "cask": {
      "arc": {
        "version": "1.40.1,49250",
        "options": {
          "full_name": "arc"
        }
      },
      "clion": {
        "version": "2024.1.1,241.15989.121",
        "options": {
          "full_name": "clion"
        }
      },
      "discord": {
        "version": "0.0.302",
        "options": {
          "full_name": "discord"
        }
      },
      "element": {
        "version": "1.11.65",
        "options": {
          "full_name": "element"
        }
      },
      "firefox": {
        "version": "125.0.2",
        "options": {
          "full_name": "firefox"
        }
      },
      "font-fira-code-nerd-font": {
        "version": "3.2.1",
        "options": {
          "full_name": "font-fira-code-nerd-font"
        }
      },
      "font-inter": {
        "version": "4.0",
        "options": {
          "full_name": "font-inter"
        }
      },
      "font-monaspace": {
        "version": "1.000",
        "options": {
          "full_name": "font-monaspace"
        }
      },
      "intellij-idea": {
        "version": "2024.1,241.14494.240",
        "options": {
          "full_name": "intellij-idea"
        }
      },
      "iterm2": {
        "version": "3.4.23",
        "options": {
          "full_name": "iterm2"
        }
      },
      "keyboardcleantool": {
        "version": "6",
        "options": {
          "full_name": "keyboardcleantool"
        }
      },
      "maccy": {
        "version": "0.30.0",
        "options": {
          "full_name": "maccy"
        }
      },
      "multimc": {
        "version": "0.7.0",
        "options": {
          "full_name": "multimc"
        }
      },
      "netnewswire": {
        "version": "6.1.4",
        "options": {
          "full_name": "netnewswire"
        }
      },
      "obs": {
        "version": "30.1.2",
        "options": {
          "full_name": "obs"
        }
      },
      "openvpn-connect": {
        "version": "3.4.9,4830",
        "options": {
          "full_name": "openvpn-connect"
        }
      },
      "orbstack": {
        "version": "1.5.1_16857",
        "options": {
          "full_name": "orbstack"
        }
      },
      "postman": {
        "version": "10.24.16",
        "options": {
          "full_name": "postman"
        }
      },
      "prismlauncher": {
        "version": "8.3",
        "options": {
          "full_name": "prismlauncher"
        }
      },
      "qbittorrent": {
        "version": "4.6.4",
        "options": {
          "full_name": "qbittorrent"
        }
      },
      "rustrover": {
        "version": "2024.1,241.15989.101",
        "options": {
          "full_name": "rustrover"
        }
      },
      "sf-symbols": {
        "version": "5.1",
        "options": {
          "full_name": "sf-symbols"
        }
      },
      "sourcetree-beta": {
        "version": "4.2.7b17,262",
        "options": {
          "full_name": "sourcetree-beta"
        }
      },
      "spotify": {
        "version": "1.2.35.663,b699649e,5769",
        "options": {
          "full_name": "spotify"
        }
      },
      "telegram": {
        "version": "10.12.1,262593",
        "options": {
          "full_name": "telegram"
        }
      },
      "tor-browser": {
        "version": "13.0.14",
        "options": {
          "full_name": "tor-browser"
        }
      },
      "vial": {
        "version": "0.7.1",
        "options": {
          "full_name": "vial"
        }
      },
      "visual-studio-code": {
        "version": "1.88.1",
        "options": {
          "full_name": "visual-studio-code"
        }
      },
      "vlc": {
        "version": "3.0.20",
        "options": {
          "full_name": "vlc"
        }
      },
      "zed-preview": {
        "version": "0.133.3",
        "options": {
          "full_name": "zed-preview"
        }
      },
      "zoom": {
        "version": "6.0.2.33403",
        "options": {
          "full_name": "zoom"
        }
      }
    },
    "mas": {
      "AdGuard for Safari": {
        "id": "1440147259",
        "version": "1.11.17"
      },
      "Bitwarden": {
        "id": "1352778147",
        "version": "2024.4.1"
      },
      "Boop": {
        "id": "1518425043",
        "version": "1.4.0"
      },
      "Consent-O-Matic": {
        "id": "1606897889",
        "version": "1.0.12"
      },
      "CotEditor": {
        "id": "1024640650",
        "version": "4.8.0"
      },
      "HSE App X": {
        "id": "1527320487",
        "version": "1.40.0"
      },
      "Icon Set Creator": {
        "id": "939343785",
        "version": "1.1.13"
      },
      "Keynote": {
        "id": "409183694",
        "version": "14.0"
      },
      "Microsoft To Do": {
        "id": "1274495053",
        "version": "2.116"
      },
      "Numbers": {
        "id": "409203825",
        "version": "14.0"
      },
      "Pages": {
        "id": "409201541",
        "version": "14.0"
      },
      "TestFlight": {
        "id": "899247664",
        "version": "3.5.1"
      },
      "Vimari": {
        "id": "1480933944",
        "version": "2.1.1"
      },
      "Wayback Machine": {
        "id": "1472432422",
        "version": "3.3"
      },
      "Xcode": {
        "id": "497799835",
        "version": "15.3"
      }
    },
    "vscode": {
      "github.copilot": null,
      "github.copilot-chat": null,
      "golang.go": null,
      "haskell.haskell": null,
      "justusadam.language-haskell": null,
      "llvm-vs-code-extensions.vscode-clangd": null,
      "mgt19937.typst-preview": null,
      "ms-python.black-formatter": null,
      "ms-python.debugpy": null,
      "ms-python.python": null,
      "ms-python.vscode-pylance": null,
      "ms-toolsai.jupyter-keymap": null,
      "ms-toolsai.jupyter-renderers": null,
      "myriad-dreamin.tinymist": null,
      "rust-lang.rust-analyzer": null,
      "vadimcn.vscode-lldb": null,
      "ziglang.vscode-zig": null
    }
  },
  "system": {
    "macos": {
      "sonoma": {
        "HOMEBREW_VERSION": "4.2.19",
        "HOMEBREW_PREFIX": "/opt/homebrew",
        "Homebrew/homebrew-core": "api",
        "CLT": "15.3.0.0.1.1708646388",
        "Xcode": "15.3",
        "macOS": "14.4.1"
      }
    }
  }
}
