[
  {
    "context": "Editor",
    "bindings": {
      "alt-shift-enter": "editor::ToggleInlayHints",
      "cmd-shift-k": "editor::Hover"
    }
  },
  {
    "bindings": {
      "alt-shift-enter": "editor::ToggleInlayHints",
      "cmd-shift-r": "task::Spawn",
      "cmd-r": "task::Rerun"
    }
  },
  {
    "context": "Editor && vim_mode == normal",
    "bindings": {
      "c a": "editor::ToggleCodeActions",
      "shift-e": "diagnostics::Deploy",
      "ctrl-k": "editor::Hover",
      "g d": "editor::GoToDefinition",
      "g I": "editor::GoToImplementation",
      "g D": "editor::FindAllReferences"
    }
  },
  {
    "context": "Editor && vim_mode == insert",
    "bindings": {
      "alt-l": "editor::AcceptPartialCopilotSuggestion"
    }
  },
  {
    "context": "Editor && VimControl",
    "bindings": {}
  },
  {
    "context": "Editor && (vim_mode == visual || vim_mode == normal)",
    "bindings": {
      "n": "vim::Left",
      "e": "vim::Down",
      "i": "vim::Up",
      "o": "vim::Right",
      "k": "vim::InsertBefore",
      "K": ["workspace::SendKeystrokes", "l k"],
      "h": "vim::InsertLineBelow",
      "H": "vim::InsertLineAbove",

      "l": "vim::StartOfLineDownward",
      "L": "vim::EndOfLineDownward",

      "j": "search::SelectNextMatch",
      "J": "search::SelectPrevMatch",

      "tab": "pane::ActivateNextItem",
      "shift-tab": "pane::ActivatePrevItem",

      "w n": "vim::PreviousWordStart",
      "w e": "vim::PreviousWordEnd",
      "w i": "vim::NextWordStart",
      "w o": "vim::NextWordEnd",

      "w N": "vim::PreviousSubwordStart",
      "w E": "vim::PreviousSubwordEnd",

      "ctrl-e": "editor::LineDown",
      "ctrl-i": "editor::LineUp",

      "gc": "editor::ToggleComments"
    }
  }
]
